<?xml version="1.0" encoding="UTF-8" standalone="no"?>
<svg
   xmlns:dc="http://purl.org/dc/elements/1.1/"
   xmlns:cc="http://creativecommons.org/ns#"
   xmlns:rdf="http://www.w3.org/1999/02/22-rdf-syntax-ns#"
   xmlns:svg="http://www.w3.org/2000/svg"
   xmlns="http://www.w3.org/2000/svg"
   xmlns:sodipodi="http://sodipodi.sourceforge.net/DTD/sodipodi-0.dtd"
   xmlns:inkscape="http://www.inkscape.org/namespaces/inkscape"
   aria-hidden="true"
   focusable="false"
   data-prefix="fas"
   data-icon="chevron-down"
   class="svg-inline--fa fa-chevron-down fa-w-14"
   role="img"
   viewBox="0 0 448 512"
   version="1.1"
   id="svg76"
   sodipodi:docname="chevron-down-solid.svg"
   inkscape:version="0.92.4 5da689c313, 2019-01-14">
  <metadata
     id="metadata82">
    <rdf:RDF>
      <cc:Work
         rdf:about="">
        <dc:format>image/svg+xml</dc:format>
        <dc:type
           rdf:resource="http://purl.org/dc/dcmitype/StillImage" />
      </cc:Work>
    </rdf:RDF>
  </metadata>
  <defs
     id="defs80" />
  <sodipodi:namedview
     pagecolor="#ffffff"
     bordercolor="#666666"
     borderopacity="1"
     objecttolerance="10"
     gridtolerance="10"
     guidetolerance="10"
     inkscape:pageopacity="0"
     inkscape:pageshadow="2"
     inkscape:window-width="1366"
     inkscape:window-height="736"
     id="namedview78"
     showgrid="false"
     inkscape:zoom="1.078125"
     inkscape:cx="224"
     inkscape:cy="256"
     inkscape:window-x="0"
     inkscape:window-y="0"
     inkscape:window-maximized="1"
     inkscape:current-layer="svg76" />
  <path
     style="fill:#ffffff;stroke-width:0.92753625"
     d="M 215.28116,370.00219 C 210.91312,367.93762 195.88376,353.29562 110.73957,268.15491 3.0817622,160.50151 7.4086461,165.24061 7.3155291,154.8779 7.2340691,145.81286 8.4019211,143.96536 24.558477,127.6 c 8.225012,-8.33131 16.425232,-15.90895 18.222712,-16.8392 5.230577,-2.70697 11.110011,-3.19646 17.184177,-1.43065 5.269032,1.53175 6.199621,2.41326 85.157424,80.66688 l 79.83016,79.11822 79.07924,-78.48806 c 52.285,-51.89412 80.26689,-79.02567 82.5844,-80.07474 5.70868,-2.58416 10.62362,-2.94027 16.63291,-1.20513 5.07091,1.46419 6.39986,2.535 20.47075,16.49447 8.27628,8.21074 15.75933,16.41702 16.62899,18.23617 2.12551,4.44615 2.66937,12.10763 1.23999,17.46815 -1.098,4.11777 -7.42067,10.65208 -101.91326,105.32456 -62.17385,62.29222 -102.1526,101.66697 -104.4255,102.84787 -2.06332,1.07201 -6.14215,2.08525 -9.27536,2.30414 -4.61592,0.32249 -6.48332,-0.0303 -10.69395,-2.02049 z"
     id="path84"
     inkscape:connector-curvature="0" />
</svg>
